[
  [
    {
      "id": "predicate_intro",
      "depends": ["propositional_intro"],
      "label": "Intro"
    },
    {
      "id": "forall_elim",
      "depends": ["predicate_intro", "assert"],
      "label": "$A$B",
      "premises": ["Ax0P0x0"],
      "target": "P0a0",
      "steps": 2,
      "lesson": "Was für alles gilt, gilt auch für beliebiges."
    },
    {
      "id": "forall_intro",
      "depends": ["forall_elim"],
      "label": "$A$E",
      "premises": ["Ax0P0x0"],
      "target": "Ax1P0x1",
      "steps": 3,
      "lesson": "Der Beweis demonstriert, dass man Individenvariablen frei ersetzen kann, sofern man alle Vorkommnisse ersetzt."
    },
    {
      "id": "law_reflexive",
      "depends": ["forall_intro"],
      "premises": ["Ax0Ax1R0x0x1"],
      "target": "Ax0Rx0x0",
      "steps": 4,
      "lesson": "Wenn alles zu allem in Beziehung steht, dann auch zu sich selbst."
    },
    {
      "id": "law_forall_swap",
      "depends": ["forall_intro"],
      "premises": ["Ax0Ax1R0x0x1"],
      "target": "Ax1Ax0R0x0x1",
      "steps": 5,
      "lesson": "Die Reihenfolge von Universalquantoren kann vertauscht werden."
    }
  ],
  [
    {
      "id": "law_forall_associative1",
      "depends": ["forall_intro", "conj_elim", "conj_intro"],
      "premises": ["Ax0&P0x0P1x0"],
      "target": "&Ax0P0x0Ax0P1x0",
      "steps": 7
    },
    {
      "id": "law_forall_associative2",
      "depends": ["forall_intro", "conj_elim", "conj_intro"],
      "premises": ["&Ax0P0x0Ax0P1x0"],
      "target": "Ax0&P0x0P1x0",
      "steps": 7
    },
    {
      "id": "law_forall_cond_distributive1",
      "depends": ["forall_intro", "cond_elim", "cond_intro"],
      "premises": ["Ax0Ax1>P0x0R0x0x1"],
      "target": "Ax0>P0x0Ax1R0x0x1",
      "steps": 8
    },
    {
      "id": "law_forall_cond_distributive2",
      "depends": ["forall_intro", "cond_elim", "cond_intro"],
      "premises": ["Ax0>P0x0Ax1R0x0x1"],
      "target": "Ax0Ax1>P0x0R0x0x1",
      "steps": 8
    },
    {
      "id": "law_forall_commutative1",
      "depends": ["forall_intro", "adj_elim", "adj_intro", "conj_intro", "cond_intro", "neg_elim", "neg_intro"],
      "premises": ["Ax0vP0a0P1x0"],
      "target": "vP0a0Ax0P1x0",
      "steps": 16
    },
    {
      "id": "law_forall_commutative2",
      "depends": ["forall_intro", "adj_elim", "adj_intro", "conj_intro", "cond_intro", "neg_elim", "neg_intro"],
      "premises": ["vP0a0Ax0P1x0"],
      "target": "Ax0vP0a0P1x0",
      "steps": 17
    }
  ],
  [
    {
      "id": "exists_intro",
      "depends": ["predicate_intro", "assert"],
      "label": "$E$E",
      "premises": ["P0a0"],
      "target": "Ex0P0x0",
      "steps": 2
    },
    {
      "id": "exists_elim",
      "depends": ["exists_intro", "cond_intro"],
      "label": "$E$B",
      "premises": ["Ex0P0x0"],
      "target": "Ex1P0x1",
      "steps": 5,
      "lesson": "Der Beweis demonstriert, dass man Individenvariablen frei ersetzen kann, sofern man alle Vorkommnisse ersetzt."
    },
    {
      "id": "exists_swap",
      "depends": ["exists_elim"],
      "premises": ["Ex0Ex1R0x0x1"],
      "target": "Ex1Ex0R0x0x1",
      "steps": 9,
      "lesson": "Die Reihenfolge von Existenzquantoren kann vertauscht werden."
    }
  ],
  [
    {
      "id": "quantified_law_of_contradiction",
      "depends": ["exists_elim", "neg_elim"],
      "premises": [],
      "target": "-Ex0&P0x0-P0x0",
      "steps": 10
    },
    {
      "id": "law_exists_cond_associative1",
      "depends": ["exists_elim", "cond_elim"],
      "premises": ["Ex0>P0a0P1x0"],
      "target": ">P0a0Ex0P1x0",
      "steps": 8
    },
    {
      "id": "law_exists_cond_associative2",
      "depends": ["exists_elim", "cond_elim"],
      "premises": [">P0a0Ex0P1x0"],
      "target": "Ex0>P0a0P1x0",
      "steps": 25
    },
    {
      "id": "law_exists_adj_associative1",
      "depends": ["exists_elim", "adj_elim", "adj_intro"],
      "premises": ["Ex0vP0x0P1x0"],
      "target": "vEx0P0x0Ex0P1x0",
      "steps": 19
    },
    {
      "id": "law_exists_adj_associative2",
      "depends": ["exists_elim", "adj_elim", "adj_intro"],
      "premises": ["vEx0P0x0Ex0P1x0"],
      "target": "Ex0vP0x0P1x0",
      "steps": 22
    },
    {
      "id": "law_exists_conj_distributive1",
      "depends": ["exists_elim", "conj_elim", "conj_intro"],
      "premises": ["Ex0&P0a0P1x0"],
      "target": "&P0a0Ex0P1x0",
      "steps": 8
    },
    {
      "id": "law_exists_conj_distributive2",
      "depends": ["exists_elim", "conj_elim", "conj_intro"],
      "premises": ["&P0a0Ex0P1x0"],
      "target": "Ex0&P0a0P1x0",
      "steps": 8
    }
  ],
  [
    {
      "id": "law_forall_exists",
      "depends": ["forall_elim", "exists_intro"],
      "premises": ["Ax0P0x0"],
      "target": "Ex0P0x0",
      "steps": 3
    },
    {
      "id": "law_forall_exists_swap",
      "depends": ["forall_elim", "forall_intro", "exists_intro", "exists_elim"],
      "premises": ["Ex0Ax1R0x0x1"],
      "target": "Ax1Ex0R0x0x1",
      "steps": 7
    },
    {
      "id": "law_forall_exists_neg1",
      "depends": ["exists_elim", "forall_elim", "conj_intro", "cond_intro", "neg_intro"],
      "premises": ["Ex0-P0x0"],
      "target": "-Ax0P0x0",
      "steps": 9
    },
    {
      "id": "law_forall_exists_neg2",
      "depends": ["exists_intro", "forall_intro", "conj_intro", "cond_intro", "neg_intro", "neg_elim"],
      "premises": ["-Ax0P0x0"],
      "target": "Ex0-P0x0",
      "steps": 13
    },
    {
      "id": "law_forall_exists_neg3",
      "depends": ["forall_elim", "exists_elim", "conj_intro", "cond_intro", "neg_intro", "neg_elim"],
      "premises": ["Ax0-P0x0"],
      "target": "-Ex0P0x0",
      "steps": 12
    },
    {
      "id": "law_forall_exists_neg4",
      "depends": ["forall_intro", "exists_intro", "conj_intro", "cond_intro", "neg_intro", "neg_elim"],
      "premises": ["-Ex0P0x0"],
      "target": "Ax0-P0x0",
      "steps": 7
    }
  ],
  [
    {
      "id": "law_exists_prenex1",
      "depends": ["forall_elim", "forall_intro", "exists_elim", "exists_intro", "conj_intro", "cond_elim", "cond_intro", "neg_intro", "neg_elim"],
      "premises": [">Ax0P0x0P1a0"],
      "target": "Ex0>P0x0P1a0",
      "steps": 24
    },
    {
      "id": "law_exists_prenex2",
      "depends": ["forall_elim", "forall_intro", "exists_elim", "exists_intro", "conj_intro", "cond_elim", "cond_intro", "neg_intro", "neg_elim"],
      "premises": ["Ex0>P0x0P1a0"],
      "target": ">Ax0P0x0P1a0",
      "steps": 8
    },
    {
      "id": "law_exists_prenex3",
      "depends": ["forall_elim", "forall_intro", "exists_elim", "exists_intro", "conj_intro", "cond_elim", "cond_intro", "neg_intro", "neg_elim"],
      "premises": [">Ex0P0x0P1a0"],
      "target": "Ax0>P0x0P1a0",
      "steps": 6
    },
    {
      "id": "law_exists_prenex4",
      "depends": ["forall_elim", "forall_intro", "exists_elim", "exists_intro", "conj_intro", "cond_elim", "cond_intro", "neg_intro", "neg_elim"],
      "premises": ["Ax0>P0x0P1a0"],
      "target": ">Ex0P0x0P1a0",
      "steps": 6
    },
    {
      "id": "law_exists_move1",
      "depends": ["forall_elim", "forall_intro", "exists_elim", "exists_intro", "conj_intro", "cond_elim", "cond_intro", "neg_intro", "neg_elim"],
      "premises": ["Ax0Ex1>P0x0R0x0x1"],
      "target": "Ax0>P0x0Ex1R0x0x1",
      "steps": 10
    },
    {
      "id": "law_exists_move2",
      "depends": ["forall_elim", "forall_intro", "exists_elim", "exists_intro", "conj_intro", "cond_elim", "cond_intro", "neg_intro", "neg_elim"],
      "premises": ["Ax0>P0x0Ex1R0x0x1"],
      "target": "Ax0Ex1>P0x0R0x0x1"
    }
  ],
  [
    {
      "id": "identity_intro",
      "depends": ["predicate_intro"],
      "label": "$=$E",
      "premises": [],
      "target": "=a0a0",
      "steps": 1
    },
    {
      "id": "identity_elim",
      "depends": ["predicate_intro", "assert"],
      "label": "$=$B",
      "premises": ["=a0a1", "P0a0"],
      "target": "P0a1",
      "steps": 3
    },
    {
      "id": "identity_transitive",
      "depends": ["identity_elim"],
      "premises": ["=a0a1", "=a1a2"],
      "target": "=a0a2",
      "steps": 3,
      "lesson": "Dieser Beweis demonstriert die <<emph>> Transitivität der Identitätsrelation. <<normal>>"
    },
    {
      "id": "identity_symmetry",
      "depends": ["identity_intro", "identity_elim"],
      "premises": ["=a0a1"],
      "target": "=a1a0",
      "steps": 3,
      "lesson": "Dieser Beweis demonstriert die <<emph>> Symmetrie der Identitätsrelation. <<normal>>"
    },
    {
      "id": "different",
      "depends": ["identity_intro", "identity_elim", "neg_intro", "exists_intro"],
      "premises": ["P0a0", "-P0a1"],
      "target": "Ex0Ex1-=x0x1",
      "steps": 9
    }
  ]
]